{
  "posmenu":{
   "port":"81" ,
   "name":"Upfront TWD E ORder",
   "stname":"BAngna Store",
   "stcode":"920",
   "defaultdb":"mssql",
   "plppgateway":"http://upfdev.com:8080/WEBSERV/QUERY"
   },
     "mssqlConfig": {
       "host":"10.77.3.11",  
       "userid": "upfdba",
       "password":"upfrontadmin",
        "options":{
       "database":"CCTSQL",
         "encrypt": true,
            "connectTimeout":600000,
            "requestTimeout":600000
           }
       },  
       "plppConfig": {
         "host":"10.77.1.5",    
         "userid": "upfdba",
         "password":"upfrontadmin",
          "options":{
             "database":"PLPPSERVICE",
              "encrypt": true,
              "connectTimeout":5000000
           }
       }  ,
       "cloudConfig": {
         "host": "10.77.1.5",
         "userid":"upfdba",
         "password":"upfrontadmin",
          "options":{
             "database":"CLOUDPOS",
              "encrypt": true,
              "connectTimeout":5000
              }
         },  
       "cloudposConfig": {
         "host":"10.77.1.5",    
         "userid": "upfdba",
         "password":"upfrontadmin",
          "options":{
             "database":"CLOUDPOS",
              "encrypt": true,
              "connectTimeout":5000000
           }
       }  ,    
     "mysqlConfig": {
       "host": "10.77.1.15",
       "userid": "paisan",
       "password":"upfront",
       "dbName": "twdpim",
      "dateStrings": true
     },
      "mongoConfig": {
       "host": "sme.upfront.co.th",
       "userid": "root",
       "password":"upfront",
        "dbName": "upfront",
       "port": 27017
     },
     "serverConfig": {
       "host":"192.168.0.3",  
       "userid": "upfdba",
       "password":"upfrontadmin",
        "options":{
       "database":"TWDCATALOG",
         "encrypt": true,
         "connectTimeout":5000000
           }
       },  
     "LineLoginConfig":{
   "client_id":"1598635971" ,
   "client_secret":"a9c6e114fc2565896b8586fb32c25c68",
   "redirect_uri":"http://localhost:81/cb"       
   }
   }